{
    "variable": [
        {
            "id": "baseUrl",
            "key": "baseUrl",
            "type": "string",
            "name": "string",
            "value": "http:\/\/localhost"
        }
    ],
    "info": {
        "name": "Laravel",
        "_postman_id": "bcd9b29e-71f0-4fa0-83aa-653e34355d1f",
        "description": "",
        "schema": "https:\/\/schema.getpostman.com\/json\/collection\/v2.1.0\/collection.json"
    },
    "item": [
        {
            "name": "Endpoints",
            "description": "",
            "item": [
                {
                    "name": "GET api\/user",
                    "request": {
                        "url": {
                            "host": "{{baseUrl}}",
                            "path": "api\/user",
                            "query": [],
                            "raw": "{{baseUrl}}\/api\/user"
                        },
                        "method": "GET",
                        "header": [
                            {
                                "key": "Content-Type",
                                "value": "application\/json"
                            },
                            {
                                "key": "Accept",
                                "value": "application\/json"
                            }
                        ],
                        "body": null,
                        "description": "",
                        "auth": {
                            "type": "noauth"
                        }
                    },
                    "response": [
                        {
                            "header": [
                                {
                                    "key": "cache-control",
                                    "value": "no-cache, private"
                                },
                                {
                                    "key": "content-type",
                                    "value": "application\/json"
                                },
                                {
                                    "key": "access-control-allow-origin",
                                    "value": "*"
                                }
                            ],
                            "code": 500,
                            "body": "{\"status\":\"error\",\"message\":\"Unauthenticated.\"}",
                            "name": ""
                        }
                    ]
                }
            ]
        },
        {
            "name": "News Categories",
            "description": "\nAPIs for managing news categories",
            "item": [
                {
                    "name": "Get a list of news categories.",
                    "request": {
                        "url": {
                            "host": "{{baseUrl}}",
                            "path": "api\/v1\/news-category",
                            "query": [
                                {
                                    "key": "search",
                                    "value": "technology",
                                    "description": "Search term.",
                                    "disabled": false
                                },
                                {
                                    "key": "page",
                                    "value": "1",
                                    "description": "Page number.",
                                    "disabled": false
                                },
                                {
                                    "key": "per_page",
                                    "value": "10",
                                    "description": "Items per page.",
                                    "disabled": false
                                }
                            ],
                            "raw": "{{baseUrl}}\/api\/v1\/news-category?search=technology&page=1&per_page=10"
                        },
                        "method": "GET",
                        "header": [
                            {
                                "key": "Content-Type",
                                "value": "application\/json"
                            },
                            {
                                "key": "Accept",
                                "value": "application\/json"
                            }
                        ],
                        "body": null,
                        "description": "",
                        "auth": {
                            "type": "noauth"
                        }
                    },
                    "response": [
                        {
                            "header": [],
                            "code": 200,
                            "body": "{\n  \"data\": [\n    {\n      \"id\": 1,\n      \"name\": \"Technology\",\n      \"created_at\": \"2023-01-01T00:00:00.000000Z\",\n      \"updated_at\": \"2023-01-01T00:00:00.000000Z\"\n    }\n  ],\n  \"links\": {\n    \"first\": \"http:\/\/example.com\/news-categories?page=1\",\n    \"last\": \"http:\/\/example.com\/news-categories?page=1\",\n    \"prev\": null,\n    \"next\": null\n  },\n  \"meta\": {\n    \"current_page\": 1,\n    \"from\": 1,\n    \"last_page\": 1,\n    \"path\": \"http:\/\/example.com\/news-categories\",\n    \"per_page\": 10,\n    \"to\": 1,\n    \"total\": 1\n  }\n}",
                            "name": ""
                        }
                    ]
                },
                {
                    "name": "Create a new news category.",
                    "request": {
                        "url": {
                            "host": "{{baseUrl}}",
                            "path": "api\/v1\/news-category",
                            "query": [],
                            "raw": "{{baseUrl}}\/api\/v1\/news-category"
                        },
                        "method": "POST",
                        "header": [
                            {
                                "key": "Content-Type",
                                "value": "application\/json"
                            },
                            {
                                "key": "Accept",
                                "value": "application\/json"
                            }
                        ],
                        "body": {
                            "mode": "raw",
                            "raw": "{\"name\":\"Technology\"}"
                        },
                        "description": "",
                        "auth": {
                            "type": "noauth"
                        }
                    },
                    "response": [
                        {
                            "header": [],
                            "code": 201,
                            "body": "{\n  \"status\": \"success\",\n  \"message\": \"News Category created successfully.\"\n}",
                            "name": ""
                        }
                    ]
                },
                {
                    "name": "Get a specific news category.",
                    "request": {
                        "url": {
                            "host": "{{baseUrl}}",
                            "path": "api\/v1\/news-category\/:id",
                            "query": [],
                            "raw": "{{baseUrl}}\/api\/v1\/news-category\/:id",
                            "variable": [
                                {
                                    "id": "id",
                                    "key": "id",
                                    "value": "1",
                                    "description": "The ID of the news category."
                                }
                            ]
                        },
                        "method": "GET",
                        "header": [
                            {
                                "key": "Content-Type",
                                "value": "application\/json"
                            },
                            {
                                "key": "Accept",
                                "value": "application\/json"
                            }
                        ],
                        "body": null,
                        "description": "",
                        "auth": {
                            "type": "noauth"
                        }
                    },
                    "response": [
                        {
                            "header": [],
                            "code": 200,
                            "body": "{\n  \"status\": \"success\",\n  \"message\": \"News Category retrieved successfully.\",\n  \"data\": {\n    \"id\": 1,\n    \"name\": \"Technology\",\n    \"created_at\": \"2023-01-01T00:00:00.000000Z\",\n    \"updated_at\": \"2023-01-01T00:00:00.000000Z\"\n  }\n}",
                            "name": ""
                        },
                        {
                            "header": [],
                            "code": 404,
                            "body": "{\n  \"status\": \"error\",\n  \"message\": \"News Category not found.\"\n}",
                            "name": ""
                        }
                    ]
                },
                {
                    "name": "Update a specific news category.",
                    "request": {
                        "url": {
                            "host": "{{baseUrl}}",
                            "path": "api\/v1\/news-category\/:id",
                            "query": [],
                            "raw": "{{baseUrl}}\/api\/v1\/news-category\/:id",
                            "variable": [
                                {
                                    "id": "id",
                                    "key": "id",
                                    "value": "1",
                                    "description": "The ID of the news category."
                                }
                            ]
                        },
                        "method": "PUT",
                        "header": [
                            {
                                "key": "Content-Type",
                                "value": "application\/json"
                            },
                            {
                                "key": "Accept",
                                "value": "application\/json"
                            }
                        ],
                        "body": {
                            "mode": "raw",
                            "raw": "{\"name\":\"Technology\"}"
                        },
                        "description": "",
                        "auth": {
                            "type": "noauth"
                        }
                    },
                    "response": [
                        {
                            "header": [],
                            "code": 200,
                            "body": "{\n  \"status\": \"success\",\n  \"message\": \"News Category updated successfully.\"\n}",
                            "name": ""
                        },
                        {
                            "header": [],
                            "code": 404,
                            "body": "{\n  \"status\": \"error\",\n  \"message\": \"News Category not found.\"\n}",
                            "name": ""
                        }
                    ]
                },
                {
                    "name": "Remove the specified news category from storage.",
                    "request": {
                        "url": {
                            "host": "{{baseUrl}}",
                            "path": "api\/v1\/news-category\/:id",
                            "query": [],
                            "raw": "{{baseUrl}}\/api\/v1\/news-category\/:id",
                            "variable": [
                                {
                                    "id": "id",
                                    "key": "id",
                                    "value": "1",
                                    "description": "The ID of the news category."
                                }
                            ]
                        },
                        "method": "DELETE",
                        "header": [
                            {
                                "key": "Content-Type",
                                "value": "application\/json"
                            },
                            {
                                "key": "Accept",
                                "value": "application\/json"
                            }
                        ],
                        "body": null,
                        "description": "",
                        "auth": {
                            "type": "noauth"
                        }
                    },
                    "response": [
                        {
                            "header": [],
                            "code": 200,
                            "body": "{\n  \"status\": \"success\",\n  \"message\": \"News Category deleted successfully.\"\n}",
                            "name": ""
                        },
                        {
                            "header": [],
                            "code": 404,
                            "body": "{\n  \"status\": \"error\",\n  \"message\": \"News Category not found.\"\n}",
                            "name": ""
                        }
                    ]
                }
            ]
        },
        {
            "name": "News Management",
            "description": "\nAPIs for managing news",
            "item": [
                {
                    "name": "Get a list of news articles.",
                    "request": {
                        "url": {
                            "host": "{{baseUrl}}",
                            "path": "api\/v1\/news",
                            "query": [
                                {
                                    "key": "page",
                                    "value": "1",
                                    "description": "Optional. The page number.",
                                    "disabled": false
                                },
                                {
                                    "key": "per_page",
                                    "value": "10",
                                    "description": "Optional. Items per page.",
                                    "disabled": false
                                },
                                {
                                    "key": "news_category_id",
                                    "value": "2",
                                    "description": "Optional. Filter by category ID.",
                                    "disabled": false
                                },
                                {
                                    "key": "search",
                                    "value": "%22climate%22",
                                    "description": "Optional. Search by title or content.",
                                    "disabled": false
                                }
                            ],
                            "raw": "{{baseUrl}}\/api\/v1\/news?page=1&per_page=10&news_category_id=2&search=%22climate%22"
                        },
                        "method": "GET",
                        "header": [
                            {
                                "key": "Content-Type",
                                "value": "application\/json"
                            },
                            {
                                "key": "Accept",
                                "value": "application\/json"
                            }
                        ],
                        "body": null,
                        "description": "",
                        "auth": {
                            "type": "noauth"
                        }
                    },
                    "response": [
                        {
                            "header": [],
                            "code": 200,
                            "body": "{\n  \"status\": \"success\",\n  \"message\": \"News retrieved successfully.\",\n  \"data\": {\n    \"items\": [\n      {\n        \"id\": 1,\n        \"title\": \"Climate News\",\n        \"description\": \"Short description\",\n        \"content\": \"This is the content.\",\n        \"author\": \"John Doe\",\n        \"news_category_id\": 2,\n        \"created_at\": \"2024-10-20T10:00:00Z\",\n        \"updated_at\": \"2024-10-20T10:00:00Z\"\n      }\n    ],\n    \"pagination\": {\n      \"total\": 50,\n      \"count\": 10,\n      \"per_page\": 10,\n      \"current_page\": 1,\n      \"total_pages\": 5\n    }\n  }\n}",
                            "name": "Success"
                        }
                    ]
                },
                {
                    "name": "Store a newly created news article in storage.",
                    "request": {
                        "url": {
                            "host": "{{baseUrl}}",
                            "path": "api\/v1\/news",
                            "query": [],
                            "raw": "{{baseUrl}}\/api\/v1\/news"
                        },
                        "method": "POST",
                        "header": [
                            {
                                "key": "Content-Type",
                                "value": "application\/json"
                            },
                            {
                                "key": "Accept",
                                "value": "application\/json"
                            }
                        ],
                        "body": {
                            "mode": "raw",
                            "raw": "{\"title\":\"\\\"New Climate Policy\\\"\",\"image\":\"\\\"http:\\\/\\\/example.com\\\/image.jpg\\\"\",\"description\":\"\\\"This is a short description.\\\"\",\"content\":\"\\\"This is the content of the news article.\\\"\",\"author\":\"\\\"Jane Doe\\\"\",\"news_category_id\":2}"
                        },
                        "description": "",
                        "auth": {
                            "type": "noauth"
                        }
                    },
                    "response": [
                        {
                            "header": [],
                            "code": 201,
                            "body": "{\n  \"status\": \"success\",\n  \"message\": \"News created successfully.\",\n  \"data\": {\n    \"id\": 1,\n    \"title\": \"New Climate Policy\",\n    \"image\": \"http:\/\/example.com\/image.jpg\",\n    \"description\": \"This is a short description.\",\n    \"content\": \"This is the content of the news article.\",\n    \"author\": \"Jane Doe\",\n    \"news_category_id\": 2,\n    \"created_at\": \"2024-10-20T10:00:00Z\",\n    \"updated_at\": \"2024-10-20T10:00:00Z\"\n  }\n}",
                            "name": "Success"
                        }
                    ]
                },
                {
                    "name": "Show the specified news article.",
                    "request": {
                        "url": {
                            "host": "{{baseUrl}}",
                            "path": "api\/v1\/news\/:id",
                            "query": [],
                            "raw": "{{baseUrl}}\/api\/v1\/news\/:id",
                            "variable": [
                                {
                                    "id": "id",
                                    "key": "id",
                                    "value": "1",
                                    "description": "The ID of the news article."
                                }
                            ]
                        },
                        "method": "GET",
                        "header": [
                            {
                                "key": "Content-Type",
                                "value": "application\/json"
                            },
                            {
                                "key": "Accept",
                                "value": "application\/json"
                            }
                        ],
                        "body": null,
                        "description": "",
                        "auth": {
                            "type": "noauth"
                        }
                    },
                    "response": [
                        {
                            "header": [],
                            "code": 200,
                            "body": "{\n  \"status\": \"success\",\n  \"message\": \"News retrieved successfully.\",\n  \"data\": {\n    \"id\": 1,\n    \"title\": \"Climate News\",\n    \"description\": \"Short description\",\n    \"content\": \"This is the content.\",\n    \"author\": \"John Doe\",\n    \"news_category_id\": 2,\n    \"created_at\": \"2024-10-20T10:00:00Z\",\n    \"updated_at\": \"2024-10-20T10:00:00Z\"\n  }\n}",
                            "name": "Success"
                        },
                        {
                            "header": [],
                            "code": 404,
                            "body": "{\n  \"status\": \"error\",\n  \"message\": \"News not found\"\n}",
                            "name": "Not Found"
                        }
                    ]
                },
                {
                    "name": "Update the specified news article in storage.",
                    "request": {
                        "url": {
                            "host": "{{baseUrl}}",
                            "path": "api\/v1\/news\/:id",
                            "query": [],
                            "raw": "{{baseUrl}}\/api\/v1\/news\/:id",
                            "variable": [
                                {
                                    "id": "id",
                                    "key": "id",
                                    "value": "1",
                                    "description": "The ID of the news article."
                                }
                            ]
                        },
                        "method": "PUT",
                        "header": [
                            {
                                "key": "Content-Type",
                                "value": "application\/json"
                            },
                            {
                                "key": "Accept",
                                "value": "application\/json"
                            }
                        ],
                        "body": {
                            "mode": "raw",
                            "raw": "{\"title\":\"\\\"Updated Climate Policy\\\"\",\"image\":\"\\\"http:\\\/\\\/example.com\\\/image.jpg\\\"\",\"description\":\"\\\"This is an updated short description.\\\"\",\"content\":\"\\\"This is the updated content of the news article.\\\"\",\"author\":\"\\\"Jane Doe\\\"\",\"news_category_id\":2}"
                        },
                        "description": "",
                        "auth": {
                            "type": "noauth"
                        }
                    },
                    "response": [
                        {
                            "header": [],
                            "code": 200,
                            "body": "{\n  \"status\": \"success\",\n  \"message\": \"News updated successfully.\",\n  \"data\": {\n    \"id\": 1,\n    \"title\": \"Updated Climate Policy\",\n    \"image\": \"http:\/\/example.com\/image.jpg\",\n    \"description\": \"This is an updated short description.\",\n    \"content\": \"This is the updated content of the news article.\",\n    \"author\": \"Jane Doe\",\n    \"news_category_id\": 2,\n    \"created_at\": \"2024-10-20T10:00:00Z\",\n    \"updated_at\": \"2024-10-20T10:00:00Z\"\n  }\n}",
                            "name": "Success"
                        },
                        {
                            "header": [],
                            "code": 404,
                            "body": "{\n  \"status\": \"error\",\n  \"message\": \"News not found\"\n}",
                            "name": "Not Found"
                        }
                    ]
                },
                {
                    "name": "Remove the specified news article from storage.",
                    "request": {
                        "url": {
                            "host": "{{baseUrl}}",
                            "path": "api\/v1\/news\/:id",
                            "query": [],
                            "raw": "{{baseUrl}}\/api\/v1\/news\/:id",
                            "variable": [
                                {
                                    "id": "id",
                                    "key": "id",
                                    "value": "1",
                                    "description": "The ID of the news article."
                                }
                            ]
                        },
                        "method": "DELETE",
                        "header": [
                            {
                                "key": "Content-Type",
                                "value": "application\/json"
                            },
                            {
                                "key": "Accept",
                                "value": "application\/json"
                            }
                        ],
                        "body": null,
                        "description": "",
                        "auth": {
                            "type": "noauth"
                        }
                    },
                    "response": [
                        {
                            "header": [],
                            "code": 200,
                            "body": "{\n  \"status\": \"success\",\n  \"message\": \"News deleted successfully.\"\n}",
                            "name": "Success"
                        },
                        {
                            "header": [],
                            "code": 404,
                            "body": "{\n  \"status\": \"error\",\n  \"message\": \"News not found\"\n}",
                            "name": "Not Found"
                        }
                    ]
                }
            ]
        }
    ],
    "auth": {
        "type": "noauth"
    }
}